┌────────────────────────────────────┬────────────┬─────────────────────────────
│                                    │ SepalWidth │ My dependent variable: Sep ⋯
│                                    │    (1)     │   (2)   │   (3)   │   (4)  ⋯
├────────────────────────────────────┼────────────┼─────────┼─────────┼─────────
│ My dependent variable: SepalLength │     -0.313 │         │         │        ⋯
│                                    │    (0.239) │         │         │        ⋯
│ Length of Petal                    │      1.048 │         │         │        ⋯
│                                    │    (0.362) │         │         │        ⋯
│ SepalWidth                         │            │   0.729 │  -0.223 │   0.39 ⋯
│                                    │            │ (0.152) │ (0.155) │ (0.091 ⋯
│ Const.                             │            │         │   6.526 │   3.45 ⋯
│                                    │            │         │ (0.479) │ (0.309 ⋯
│ Width of Petal                     │            │         │         │   0.97 ⋯
│                                    │            │         │         │ (0.052 ⋯
│ SepalWidth & Width of Petal        │            │         │         │        ⋯
│                                    │            │         │         │        ⋯
│ Species Fixed Effects              │        Yes │         │         │        ⋯
│ IsSmall Dummies Fixed Effects      │            │     Yes │         │        ⋯
│ Species & isWide Fixed Effects     │            │     Yes │         │        ⋯
│ ⋮                                  │          ⋮ │       ⋮ │       ⋮ │        ⋱
└────────────────────────────────────┴────────────┴─────────┴─────────┴─────────
                                                    2 columns and 9 rows omitted
