┌───────────────────────┬─────────────────────────────┬────────────┐
│                       │         SepalLength         │ SepalWidth │
│                       │   (1)   │   (2)   │   (3)   │    (4)     │
├───────────────────────┼─────────┼─────────┼─────────┼────────────┤
│ (Intercept)           │   6.526 │         │         │            │
│                       │ (0.479) │         │         │            │
│ SepalWidth            │  -0.223 │   0.432 │   0.506 │            │
│                       │ (0.155) │ (0.081) │ (0.103) │            │
│ PetalLength           │         │   0.776 │   0.830 │      1.048 │
│                       │         │ (0.064) │ (0.069) │    (0.362) │
│ PetalWidth            │         │         │  -0.312 │            │
│                       │         │         │ (0.154) │            │
│ SepalLength           │         │         │         │     -0.313 │
│                       │         │         │         │    (0.239) │
│ Species Fixed Effects │         │     Yes │     Yes │        Yes │
│ isSmall Fixed Effects │         │         │     Yes │            │
│ N                     │     150 │     150 │     150 │        150 │
│ R2                    │   0.014 │   0.863 │   0.867 │      0.080 │
│ Adjusted R2           │   0.007 │   0.860 │   0.861 │      0.055 │
│ ⋮                     │       ⋮ │       ⋮ │       ⋮ │          ⋮ │
└───────────────────────┴─────────┴─────────┴─────────┴────────────┘
                                                      6 rows omitted
